An Analysis of the COSMIC Database
…
Does the Chromosome Matter?

Another bit of information that may be interesting is the relevance of the chromosome number  do mutations occur more often on some chromosomes than others? We would think no, since DNA mutations happen mostly at random and as such would be distributed evently across the entire human genome. However, human chromosomes are numbered according to their size, with chromosome 1 being the largest and chromosome 22 being the smallest, so although the ratio of mutations/chromosome size should be constant, there should be a negative correlation between the number of mutations and chromosome number. Its worth noting that this data set includes chromosomes 23, 24, and 25 (which dont really exist  humans have chromosomes 1-22 and sex chromosomes). Im guessing that 23/24 are the sex chromosomes but I have no idea what 25 might be, so Ive removed it from this dataset.

splitted=COSMIC %>% select(Mutation.genome.position) %>% separate(Mutation.genome.position,c("Chromosome_Number","Base_Pair_Location"),sep=":")

## Warning: Too few values at 137651 locations: 8431, 8432, 8433, 8434, 8435,
## 8436, 8437, 8438, 8439, 8440, 8441, 8442, 8443, 8444, 8445, 8446, 8447,
## 8448, 8449, 8450, ...

splitted<-splitted %>% group_by(Chromosome_Number) %>% summarise(count=n()) %>% filter(Chromosome_Number!="") %>% filter(Chromosome_Number!=25) %>% mutate(Chromosome_Number=as.numeric(Chromosome_Number)) %>% arrange(Chromosome_Number)
splitted

## # A tibble: 24 x 2
##    Chromosome_Number  count
##                <dbl>  <int>
##  1                 1 563090
##  2                 2 439852
##  3                 3 336098
##  4                 4 218216
##  5                 5 277895
##  6                 6 292096
##  7                 7 317488
##  8                 8 204516
##  9                 9 272858
## 10                10 219168
## # ... with 14 more rows
…
